Data Journalism with R and the Tidyverse - 17 Joins
…
###
# Total population for each Maryland county, EXCEPT for Prince George's County
# County identified by GEOID (a 5-digit code), not name
###

maryland_county_population_no_pg <- read_rds("assets/data/maryland_county_population_no_pg.rds")

###
# Display the tables
###

maryland_county_population

# A tibble: 24 × 2
   geoid total_pop
   <chr>     <dbl>
 1 24001     71002
 2 24003    575421
 3 24005    828193
 4 24009     92094
 5 24011     33260
 6 24013    168233
 7 24015    102889
 8 24017    161448
 9 24019     31994
10 24021    255955
# ℹ 14 more rows

maryland_county_lookup_table

# A tibble: 24 × 2
   geoid name                         
   <chr> <chr>                        
 1 24001 Allegany County, Maryland    
 2 24003 Anne Arundel County, Maryland
 3 24005 Baltimore County, Maryland   
 4 24009 Calvert County, Maryland     
 5 24011 Caroline County, Maryland    
 6 24013 Carroll County, Maryland     
 7 24015 Cecil County, Maryland       
 8 24017 Charles County, Maryland     
 9 24019 Dorchester County, Maryland  
10 24021 Frederick County, Maryland   
# ℹ 14 more rows

maryland_county_population_no_pg 

# A tibble: 23 × 2
   geoid total_pop
   <chr>     <dbl>
 1 24001     71002
 2 24003    575421
 3 24005    828193
 4 24009     92094
 5 24011     33260
 6 24013    168233
 7 24015    102889
 8 24017    161448
 9 24019     31994
10 24021    255955
# ℹ 13 more rows

17.2.4 Inner Join

The table maryland_county_population has two columns, one with a geoid code representing each Maryland county (and Baltimore city), and another with total population. The maryland_county_lookup_table is a classic example of a lookup table. It contains the same geoid representing each Maryland county, plus a name column with the proper name.

We are going to join maryland_county_population, using the one column both share: geoid. We’ll use an inner_join. The code below says: “Connect the two tables on the geoid column. If a given geoid exists in both tables, include it in our new table. If it isn’t in both, don’t include it.”

updated_maryland_county_population <- maryland_county_lookup_table %>%
  inner_join(maryland_county_population, by="geoid")

updated_maryland_county_population 

# A tibble: 24 × 3
   geoid name                          total_pop
   <chr> <chr>                             <dbl>
 1 24001 Allegany County, Maryland         71002
 2 24003 Anne Arundel County, Maryland    575421
 3 24005 Baltimore County, Maryland       828193
 4 24009 Calvert County, Maryland          92094
 5 24011 Caroline County, Maryland         33260
 6 24013 Carroll County, Maryland         168233
 7 24015 Cecil County, Maryland           102889
 8 24017 Charles County, Maryland         161448
 9 24019 Dorchester County, Maryland       31994
10 24021 Frederick County, Maryland       255955
# ℹ 14 more rows

Because both tables contained the same 24 counties, our new table has 24 counties as well.

(In this case, they have the same column name, but they don’t have to. As long as they CONTAIN the same thing, they can have different names. You can also join using more than one column).

What happens when they aren’t identical?

To illustrate what happens, let’s run the same code, but this time use population table that contains every Maryland county EXCEPT for Prince George’s County. This table only has 23 rows. The lookup table still has 24.

# A tibble: 23 × 3
   geoid name                          total_pop
   <chr> <chr>                             <dbl>
 1 24001 Allegany County, Maryland         71002
 2 24003 Anne Arundel County, Maryland    575421
 3 24005 Baltimore County, Maryland       828193
 4 24009 Calvert County, Maryland          92094
 5 24011 Caroline County, Maryland         33260
 6 24013 Carroll County, Maryland         168233
 7 24015 Cecil County, Maryland           102889
 8 24017 Charles County, Maryland         161448
 9 24019 Dorchester County, Maryland       31994
10 24021 Frederick County, Maryland       255955
# ℹ 13 more rows
…
17.2.5 Left Joins

Let’s stick with our mismatched tables to illustrate what happens with another type of join, a left join (and it’s cousin, the right join). The code is the same, but we’ve swapped left_join for inner_join. Remember, our population table is missing P.G. county, but the lookup table has it.

updated_maryland_county_population_no_pg <- maryland_county_lookup_table %>%
  left_join(maryland_county_population_no_pg, by="geoid")

updated_maryland_county_population_no_pg

# A tibble: 24 × 3
   geoid name                          total_pop
   <chr> <chr>                             <dbl>
 1 24001 Allegany County, Maryland         71002
 2 24003 Anne Arundel County, Maryland    575421
 3 24005 Baltimore County, Maryland       828193
 4 24009 Calvert County, Maryland          92094
 5 24011 Caroline County, Maryland         33260
 6 24013 Carroll County, Maryland         168233
 7 24015 Cecil County, Maryland           102889
 8 24017 Charles County, Maryland         161448
 9 24019 Dorchester County, Maryland       31994
10 24021 Frederick County, Maryland       255955
# ℹ 14 more rows
…
If we want to combine these tables into one dataset with every county’s information, a join isn’t the way to go. For that, we’d use bind_rows(). Thick of bind_rows as stacking two tables on top of each other. This code gives us 24 rows.

all_county_population <- maryland_small_county_population %>%
  bind_rows(maryland_large_county_population)

all_county_population

# A tibble: 24 × 3
   geoid name                          total_pop
   <chr> <chr>                             <dbl>
 1 24029 Kent County, Maryland             19456
 2 24039 Somerset County, Maryland         25699
 3 24023 Garrett County, Maryland          29155
 4 24019 Dorchester County, Maryland       31994
 5 24011 Caroline County, Maryland         33260
 6 24041 Talbot County, Maryland           37087
 7 24035 Queen Anne's County, Maryland     50163
 8 24047 Worcester County, Maryland        51967
 9 24001 Allegany County, Maryland         71002
10 24009 Calvert County, Maryland          92094
# ℹ 14 more rows
…
