Data Journalism with R and the Tidyverse - 18 Data Cleaning
…
Let’s sort the dataframe by total population to identify the state with the largest population in 2020.

state_population_dirty %>%
  filter(year == 2020) %>%
  arrange(desc(total_pop))

# A tibble: 51 × 11
   geoid state      year total…¹ white…² black…³ amer_…⁴ asian…⁵ nativ…⁶ other…⁷
   <chr> <chr>     <dbl> <chr>     <dbl>   <dbl>   <dbl>   <dbl>   <dbl>   <dbl>
 1 26    Michigan   2020 9973907 7735902 1360149   50035  316844    3117  131580
 2 10    Delaware   2020 967679   652587  212795    3560   38528     705   21937
 3 34    New Jers…  2020 8885418 5820147 1189681   22288  857873    3156  564662
 4 46    South Da…  2020 879336   735228   18836   74975   12413     544    7320
 5 51    Virginia   2020 8509358 5643436 1620649   22553  570398    5994  240542
 6 38    North Da…  2020 760394   651470   23959   39165   11979    1004    8875
 7 53    Washingt…  2020 7512465 5523881  290245   91766  662902   51117  360578
 8 02    Alaska     2020 736990   466961   23894  107298   47289   10485   12231
 9 04    Arizona    2020 7174064 5292498  325105  311014  239190   14633  492027
10 11    District…  2020 701974   288306  318631    2438   28762     328   33764
# … with 41 more rows, 1 more variable: two_or_more_races_pop <dbl>, and
#   abbreviated variable names ¹​total_pop, ²​white_alone_pop, ³​black_alone_pop,
#   ⁴​amer_ind_ak_native_alone_pop, ⁵​asian_alone_pop, ⁶​native_hi_alone_pop,
#   ⁷​other_race_alone_pop
…
Now when we sort, it works.

state_population_dirty %>%
  filter(year == 2020) %>%
  arrange(desc(total_pop))

# A tibble: 51 × 11
   geoid state      year total…¹ white…² black…³ amer_…⁴ asian…⁵ nativ…⁶ other…⁷
   <chr> <chr>     <dbl>   <dbl>   <dbl>   <dbl>   <dbl>   <dbl>   <dbl>   <dbl>
 1 06    Californ…  2020  3.93e7  2.21e7 2250962  311629 5834312  149636 5623747
 2 48    Texas      2020  2.86e7  1.98e7 3464424  137921 1415664   25328 1788398
 3 12    Florida    2020  2.12e7  1.52e7 3381061   55655  590668   13339  699596
 4 36    New York   2020  1.95e7  1.22e7 3002401   76535 1674216    9376 1670723
 5 42    Pennsylv…  2020  1.28e7  1.02e7 1419582   20798  449320    4268  312888
 6 17    Illinois   2020  1.27e7  8.87e6 1796660   33972  709567    5196  757150
 7 39    Ohio       2020  1.17e7  9.39e6 1442655   20442  268527    3907  129717
 8 13    Georgia    2020  1.05e7  6.02e6 3319844   34962  434603    7127  306609
 9 37    North Ca…  2020  1.04e7  7.02e6 2217522  120272  308958    7368  334295
10 26    Michigan   2020  9.97e6  7.74e6 1360149   50035  316844    3117  131580
# … with 41 more rows, 1 more variable: two_or_more_races_pop <dbl>, and
#   abbreviated variable names ¹​total_pop, ²​white_alone_pop, ³​black_alone_pop,
#   ⁴​amer_ind_ak_native_alone_pop, ⁵​asian_alone_pop, ⁶​native_hi_alone_pop,
#   ⁷​other_race_alone_pop
…
# A tibble: 1 × 1
  total_us_black_alone_population
                            <dbl>
1                              NA

We get an NA value, which isn’t correct. Let’s examine the values in that column to see why.

state_population_dirty 

# A tibble: 255 × 11
   geoid state    year total_pop white…¹ black…² amer_…³ asian…⁴ nativ…⁵ other…⁶
   <chr> <chr>   <dbl>     <dbl>   <dbl>   <dbl>   <dbl>   <dbl>   <dbl>   <dbl>
 1 01    Alabama  2015   4830620 3325464      NA   23850   59599    2439   61078
 2 01    Alabama  2016   4841164 3325037      NA   23919   60744    2008   61991
 3 01    Alabama  2017   4850771 3317702      NA   25098   62815    2213   66942
 4 01    Alabama  2018   4864680 3317453      NA   25576   64609    2182   70055
 5 01    Alabama  2020   4893186 3302834      NA   24764   67909    2042   74996
 6 02    Alaska   2015    733375  484250   25022  101313   42921    8841    9273
 7 02    Alaska   2016    736855  483518   24443  103574   44218    8862    9900
 8 02    Alaska   2017    738565  481971   23702  104995   45604    9075   10505
 9 02    Alaska   2018    738516  478834   24129  106660   46556    8849   11027
10 02    Alaska   2020    736990  466961   23894  107298   47289   10485   12231
# … with 245 more rows, 1 more variable: two_or_more_races_pop <dbl>, and
#   abbreviated variable names ¹​white_alone_pop, ²​black_alone_pop,
#   ³​amer_ind_ak_native_alone_pop, ⁴​asian_alone_pop, ⁵​native_hi_alone_pop,
#   ⁶​other_race_alone_pop
…
But! That’s not the right answer. We want to know the total for the U.S. including Alabama in 2020. So, we need to fix that value. We look up the value on the Census website, and determine it’s 1,301,319 for 2020. So let’s update the column. This uses a function called case_when() with mutate().

Here’s how to interpret what the function below says.

“Overwrite the black_alone_pop column with new values in one of the rows, and the old values for every other row. If the state column equals Alabama AND (the &) the year column equals 2020 THEN (the tilde or ~) put the value 1301319. In any other case (any other state, or Alabama in any other year than 2020), THEN keep the value that currently exists in the black_alone_pop column.

state_population_dirty <- state_population_dirty %>%
  mutate(black_alone_pop = case_when(
    state == "Alabama" & year == 2020 ~ 1301319,
    TRUE ~ black_alone_pop
  ))

state_population_dirty

# A tibble: 255 × 11
   geoid state    year total_pop white…¹ black…² amer_…³ asian…⁴ nativ…⁵ other…⁶
   <chr> <chr>   <dbl>     <dbl>   <dbl>   <dbl>   <dbl>   <dbl>   <dbl>   <dbl>
 1 01    Alabama  2015   4830620 3325464      NA   23850   59599    2439   61078
 2 01    Alabama  2016   4841164 3325037      NA   23919   60744    2008   61991
 3 01    Alabama  2017   4850771 3317702      NA   25098   62815    2213   66942
 4 01    Alabama  2018   4864680 3317453      NA   25576   64609    2182   70055
 5 01    Alabama  2020   4893186 3302834 1301319   24764   67909    2042   74996
 6 02    Alaska   2015    733375  484250   25022  101313   42921    8841    9273
 7 02    Alaska   2016    736855  483518   24443  103574   44218    8862    9900
 8 02    Alaska   2017    738565  481971   23702  104995   45604    9075   10505
 9 02    Alaska   2018    738516  478834   24129  106660   46556    8849   11027
10 02    Alaska   2020    736990  466961   23894  107298   47289   10485   12231
# … with 245 more rows, 1 more variable: two_or_more_races_pop <dbl>, and
#   abbreviated variable names ¹​white_alone_pop, ²​black_alone_pop,
#   ³​amer_ind_ak_native_alone_pop, ⁴​asian_alone_pop, ⁵​native_hi_alone_pop,
#   ⁶​other_race_alone_pop
…
