Data Journalism with R and the Tidyverse - 19 Geographic data basics
…
Warning: sf layer has inconsistent datum (+proj=longlat +datum=NAD83 +no_defs).
Need '+proj=longlat +datum=WGS84'

Warning: sf layer has inconsistent datum (+proj=longlat +datum=NAD83 +no_defs).
Need '+proj=longlat +datum=WGS84'

19.3 Augmenting geographic data

We can join information about each school with our geographic data, and represent that on a map. In this case, we’re going to load data about the “attendance rate” from the Maryland Dept. of Education for each Prince George’s County elementary school. It ranges from 99 percent to 79 percent.

attendance <- read_rds("assets/data/attendance.rds")

attendance

# A tibble: 96 × 6
   `row_number()` county          county_number school_number school_n…¹ atten…²
            <int> <chr>           <chr>         <chr>         <chr>        <dbl>
 1              2 Prince George's 16            0105          Calverton…    88.7
 2              5 Prince George's 16            0111          Vansville…    94.3
 3              7 Prince George's 16            0205          Bladensbu…    87.4
 4              8 Prince George's 16            0210          Rogers He…    90.7
 5             10 Prince George's 16            0213          Cooper La…    91.1
 6             11 Prince George's 16            0214          Templeton…    88.6
 7             12 Prince George's 16            0217          Port Town…    86.8
 8             13 Prince George's 16            0304          Perrywood…    95.7
 9             14 Prince George's 16            0305          Patuxent …    91.1
10             15 Prince George's 16            0504          Fort Wash…    93.3
# … with 86 more rows, and abbreviated variable names ¹​school_name,
#   ²​attend_rate_pct
…
To truly answer our question, we’ll need to assign a Census tract to each school.

To do that, we’ll connect our attendance data and our income data with a “spatial join” or st_join(). We see now that for each school, it has been assigned a Census tract.

income_to_attendance <- attendance_locations %>%
  st_join(pg_tract_income) 

income_to_attendance

Simple feature collection with 96 features and 20 fields
Geometry type: POINT
Dimension:     XY
Bounding box:  xmin: -77.01563 ymin: 38.66074 xmax: -76.71038 ymax: 39.10973
Geodetic CRS:  NAD83
# A tibble: 96 × 21
   row_num…¹ county count…² schoo…³ schoo…⁴ atten…⁵ objec…⁶ psc_n…⁷ street city 
 *     <int> <chr>  <chr>   <chr>   <chr>     <dbl>   <int> <chr>   <chr>  <chr>
 1         2 Princ… 16      0105    Calver…    88.7     934 16.182  3400 … BELT…
 2         5 Princ… 16      0111    Vansvi…    94.3     975 16.255  6813 … BELT…
 3         7 Princ… 16      0205    Bladen…    87.4     656 16.106  4915 … BLAD…
 4         8 Princ… 16      0210    Rogers…    90.7     949 16.051  4301 … BLAD…
 5        10 Princ… 16      0213    Cooper…    91.1     636 16.131  3817 … LAND…
 6        11 Princ… 16      0214    Temple…    88.6     617 16.155  6001 … RIVE…
 7        12 Princ… 16      0217    Port T…    86.8     594 16.218  4351 … BLAD…
 8        13 Princ… 16      0304    Perryw…    95.7    1038 16.207  501 W… UPPE…
 9        14 Princ… 16      0305    Patuxe…    91.1     599 16.209  4410 … UPPE…
10        15 Princ… 16      0504    Fort W…    93.3     554 16.210  1300 … FORT…
# … with 86 more rows, 11 more variables: state <chr>, zip <chr>, grades <chr>,
#   school_type <chr>, type <chr>, latitude <chr>, longitude <chr>,
#   geometry <POINT [°]>, geoid <chr>, name <chr>,
#   median_household_income <dbl>, and abbreviated variable names
#   ¹​`row_number()`, ²​county_number, ³​school_number, ⁴​school_name,
#   ⁵​attend_rate_pct, ⁶​objectid, ⁷​psc_number
…
