Data Journalism with R and the Tidyverse - 21 Intro to APIs: The Census
…
So to give you some idea of how complicated the data is, let’s pull up just one file from the decennial Census. We’ll use a file called “pl”, which is short for “public law”, which is named that for reasons too boring to delve into here. It represents the first set of data released from the 2020 Census, and it only contains basics about total population counts, counts by race, and housing information.

This function load_variables returns a dataframe of all of the different variables available in the pl dataset. This table has three columns.

name: a unique code for a given variable.

label: a description of what that variable describes.

concept: a larger category that the label sits under.

pl_2020 <- load_variables(2020, "pl", cache = TRUE)

pl_2020

# A tibble: 301 × 3
   name    label                                                         concept
   <chr>   <chr>                                                         <chr>  
 1 H1_001N " !!Total:"                                                   OCCUPA…
 2 H1_002N " !!Total:!!Occupied"                                         OCCUPA…
 3 H1_003N " !!Total:!!Vacant"                                           OCCUPA…
 4 P1_001N " !!Total:"                                                   RACE   
 5 P1_002N " !!Total:!!Population of one race:"                          RACE   
 6 P1_003N " !!Total:!!Population of one race:!!White alone"             RACE   
 7 P1_004N " !!Total:!!Population of one race:!!Black or African Americ… RACE   
 8 P1_005N " !!Total:!!Population of one race:!!American Indian and Ala… RACE   
 9 P1_006N " !!Total:!!Population of one race:!!Asian alone"             RACE   
10 P1_007N " !!Total:!!Population of one race:!!Native Hawaiian and Oth… RACE   
# ℹ 291 more rows
…
total_pop_2020 <- get_decennial(geography="state", variables="P1_001N", year=2020)

Getting data from the 2020 decennial Census

Using the PL 94-171 Redistricting Data Summary File

Note: 2020 decennial Census data use differential privacy, a technique that
introduces errors into data to preserve respondent confidentiality.
ℹ Small counts should be interpreted with caution.
ℹ See https://www.census.gov/library/fact-sheets/2021/protecting-the-confidentiality-of-the-2020-census-redistricting-data.html for additional guidance.
This message is displayed once per session.

total_pop_2020

# A tibble: 52 × 4
   GEOID NAME                 variable    value
   <chr> <chr>                <chr>       <dbl>
 1 42    Pennsylvania         P1_001N  13002700
 2 06    California           P1_001N  39538223
 3 54    West Virginia        P1_001N   1793716
 4 49    Utah                 P1_001N   3271616
 5 36    New York             P1_001N  20201249
 6 11    District of Columbia P1_001N    689545
 7 02    Alaska               P1_001N    733391
 8 12    Florida              P1_001N  21538187
 9 45    South Carolina       P1_001N   5118425
10 38    North Dakota         P1_001N    779094
# ℹ 42 more rows

What’s the biggest state by population? We can sort by the value column.

total_pop_2020 <- get_decennial(geography="state", variables="P1_001N", year=2020) %>%
  arrange(desc(value))

Getting data from the 2020 decennial Census

Using the PL 94-171 Redistricting Data Summary File

total_pop_2020

# A tibble: 52 × 4
   GEOID NAME           variable    value
   <chr> <chr>          <chr>       <dbl>
 1 06    California     P1_001N  39538223
 2 48    Texas          P1_001N  29145505
 3 12    Florida        P1_001N  21538187
 4 36    New York       P1_001N  20201249
 5 42    Pennsylvania   P1_001N  13002700
 6 17    Illinois       P1_001N  12812508
 7 39    Ohio           P1_001N  11799448
 8 13    Georgia        P1_001N  10711908
 9 37    North Carolina P1_001N  10439388
10 26    Michigan       P1_001N  10077331
# ℹ 42 more rows
…
total_pop_2020 <- get_decennial(geography="state", variables="P1_001N", year=2020) %>%
  clean_names() %>%
  arrange(desc(value)) %>%
  rename(total_population = value,
         state = name) %>%
  select(state, total_population)

Getting data from the 2020 decennial Census

Using the PL 94-171 Redistricting Data Summary File

total_pop_2020

# A tibble: 52 × 2
   state          total_population
   <chr>                     <dbl>
 1 California             39538223
 2 Texas                  29145505
 3 Florida                21538187
 4 New York               20201249
 5 Pennsylvania           13002700
 6 Illinois               12812508
 7 Ohio                   11799448
 8 Georgia                10711908
 9 North Carolina         10439388
10 Michigan               10077331
# ℹ 42 more rows
…
Here’s an example using the 5-year ACS estimates. Let’s ask: what is Maryland’s richest county?

One way we can measure this is by median household income. That variable is B19013_001, so we can get that data like this:

md <- get_acs(geography = "county",
              variables = c(median_income = "B19013_001"),
              state = "MD",
              year = 2020) %>%
  arrange(desc(estimate))

Getting data from the 2016-2020 5-year ACS

md

# A tibble: 24 × 5
   GEOID NAME                          variable      estimate   moe
   <chr> <chr>                         <chr>            <dbl> <dbl>
 1 24027 Howard County, Maryland       median_income   124042  3448
 2 24009 Calvert County, Maryland      median_income   112696  3287
 3 24031 Montgomery County, Maryland   median_income   111812  1361
 4 24017 Charles County, Maryland      median_income   103678  1654
 5 24003 Anne Arundel County, Maryland median_income   103225  1817
 6 24021 Frederick County, Maryland    median_income   100685  1927
 7 24013 Carroll County, Maryland      median_income    99569  3051
 8 24035 Queen Anne's County, Maryland median_income    96467  4785
 9 24037 St. Mary's County, Maryland   median_income    95864  3872
10 24025 Harford County, Maryland      median_income    94003  2398
# ℹ 14 more rows
…
