Data Journalism with R and the Tidyverse - 14 Mutuating, Aggregates, Filters
…
The first step of every analysis starts with the data being used. Then we apply functions to the data.

In our case, the pattern that you’ll use many, many times is: data %>% group_by(COLUMN NAME) %>% summarize(VARIABLE NAME = AGGREGATE FUNCTION(COLUMN NAME))

In our dataset, the column with neighborhood identifier is called “Neighborhood.” Neighborhoods overlap with Census tracts.

Here’s the code to count the number of census tracts in each neighborhood:

baltcity_income %>%
  group_by(Neighborhood) %>%
  summarise(
    count_tracts = n()
  )

# A tibble: 56 × 2
   Neighborhood                      count_tracts
   <chr>                                    <int>
 1 Allendale/Irvington/S. Hilton                6
 2 Beechfield/Ten Hills/West Hills              3
 3 Belair-Edison                                4
 4 Brooklyn/Curtis Bay/Hawkins Point            4
 5 Canton                                       3
 6 Cedonia/Frankford                            5
 7 Cherry Hill                                  3
 8 Chinquapin Park/Belvedere                    2
 9 Claremont/Armistead                          4
10 Clifton-Berea                                5
# ℹ 46 more rows
…
Inside the parentheses in summarize, we set up the summaries we want. In this case, we just want a count of the number of loans for each county grouping. The line of code count_tracts = n(), says create a new field, called count_tracts and set it equal to n(). n() is a function that counts the number of rows or records in each group. Why the letter n? The letter n is a common symbol used to denote a count of something.

When we run that, we get a list of counties with a count next to them. But it’s not in any order.

So we’ll add another “and then do this” symbol – %>% – and use a new function called arrange(). Arrange does what you think it does – it arranges data in order. By default, it’s in ascending order – smallest to largest. But if we want to know the county with the most loans, we need to sort it in descending order. That looks like this:

baltcity_income %>%
  group_by(Neighborhood) %>%
  summarise(
    count_tracts = n()
  ) %>% 
  arrange(desc(count_tracts))

# A tibble: 56 × 2
   Neighborhood                         count_tracts
   <chr>                                       <int>
 1 Southwest Baltimore                             8
 2 Allendale/Irvington/S. Hilton                   6
 3 Medfield/Hampden/Woodberry/Remington            6
 4 Sandtown-Winchester/Harlem Park                 6
 5 Cedonia/Frankford                               5
 6 Clifton-Berea                                   5
 7 Greater Charles Village/Barclay                 5
 8 Greater Rosemont                                5
 9 Harford/Echodale                                5
10 Inner Harbor/Federal Hill                       5
# ℹ 46 more rows
…
