Data Journalism with R and the Tidyverse - 16 Visualizing your data for reporting
…
It’s not super pretty, but there’s an obvious pattern, a bog peak in 2017.

Let’s build another table with some detail by day.

days <- SF %>% 
  count(call_date2) 
days

# A tibble: 1,340 × 2
   call_date2     n
   <date>     <int>
 1 2016-03-31    10
 2 2016-04-01   130
 3 2016-04-02   119
 4 2016-04-03   148
 5 2016-04-04   171
 6 2016-04-05   170
 7 2016-04-06   170
 8 2016-04-07   105
 9 2016-04-08   142
10 2016-04-09    95
# ℹ 1,330 more rows
…
